{
  "stats": {
    "suites": 1,
    "tests": 1,
    "passes": 0,
    "pending": 0,
    "failures": 1,
    "start": "2020-03-22T10:28:46.397Z",
    "end": "2020-03-22T10:28:51.079Z",
    "duration": 4682,
    "testsRegistered": 1,
    "passPercent": 0,
    "pendingPercent": 0,
    "other": 0,
    "hasOther": false,
    "skipped": 0,
    "hasSkipped": false
  },
  "results": [
    {
      "uuid": "5b10a51e-385c-4612-800f-9cb1c7547d24",
      "title": "",
      "fullFile": "cypress\\integration\\Register.feature",
      "file": "cypress\\integration\\Register.feature",
      "beforeHooks": [],
      "afterHooks": [],
      "tests": [],
      "suites": [
        {
          "uuid": "df3e8960-fbbb-4c0b-9c39-c4f586751eb1",
          "title": "The Client Registration",
          "fullFile": "",
          "file": "",
          "beforeHooks": [],
          "afterHooks": [],
          "tests": [
            {
              "title": "Open the Registration page and Client can Register",
              "fullTitle": "The Client Registration Open the Registration page and Client can Register",
              "timedOut": null,
              "duration": 4641,
              "state": "failed",
              "speed": null,
              "pass": false,
              "fail": true,
              "pending": false,
              "context": null,
              "code": "const state = window.testState;\nreturn cy\n  .then(() => state.onStartScenario(scenario, indexedSteps))\n  .then(() =>\n    resolveAndRunBeforeHooks.call(this, scenario.tags, state.feature.name)\n  )\n  .then(() =>\n    indexedSteps.forEach(step => stepTest.call(this, state, step, rowData))\n  )\n  .then(() =>\n    resolveAndRunAfterHooks.call(this, scenario.tags, state.feature.name)\n  )\n  .then(() => state.onFinishScenario(scenario));",
              "err": {
                "message": "CypressError: Timed out retrying: Expected to find content: 'sign up' but never did.",
                "estack": "CypressError: Timed out retrying: Expected to find content: 'sign up' but never did.\n    at cypressErr (http://localhost:61680/__cypress/runner/cypress_runner.js:138036:9)\n    at throwErr (http://localhost:61680/__cypress/runner/cypress_runner.js:137969:11)\n    at Object.throwErrByPath (http://localhost:61680/__cypress/runner/cypress_runner.js:138017:3)\n    at retry (http://localhost:61680/__cypress/runner/cypress_runner.js:132299:19)\n    at onFailFn (http://localhost:61680/__cypress/runner/cypress_runner.js:120514:16)\n    at tryCatcher (http://localhost:61680/__cypress/runner/cypress_runner.js:164895:23)\n    at Promise._settlePromiseFromHandler (http://localhost:61680/__cypress/runner/cypress_runner.js:162831:31)\n    at Promise._settlePromise (http://localhost:61680/__cypress/runner/cypress_runner.js:162888:18)\n    at Promise._settlePromise0 (http://localhost:61680/__cypress/runner/cypress_runner.js:162933:10)\n    at Promise._settlePromises (http://localhost:61680/__cypress/runner/cypress_runner.js:163008:18)\n    at Async../node_modules/bluebird/js/release/async.js.Async._drainQueue (http://localhost:61680/__cypress/runner/cypress_runner.js:159620:16)\n    at Async../node_modules/bluebird/js/release/async.js.Async._drainQueues (http://localhost:61680/__cypress/runner/cypress_runner.js:159630:10)\n    at Async.drainQueues (http://localhost:61680/__cypress/runner/cypress_runner.js:159504:14)",
                "diff": null
              },
              "uuid": "154ed74f-a081-4085-aac1-cbe5f7d5c4cd",
              "parentUUID": "df3e8960-fbbb-4c0b-9c39-c4f586751eb1",
              "isHook": false,
              "skipped": false
            }
          ],
          "suites": [],
          "passes": [],
          "failures": [
            "154ed74f-a081-4085-aac1-cbe5f7d5c4cd"
          ],
          "pending": [],
          "skipped": [],
          "duration": 4641,
          "root": false,
          "rootEmpty": false,
          "_timeout": 2000
        }
      ],
      "passes": [],
      "failures": [],
      "pending": [],
      "skipped": [],
      "duration": 0,
      "root": true,
      "rootEmpty": true,
      "_timeout": 2000
    }
  ],
  "meta": {
    "mocha": {
      "version": "7.1.0"
    },
    "mochawesome": {
      "options": {
        "quiet": false,
        "reportFilename": "mochawesome",
        "saveHtml": true,
        "saveJson": true,
        "consoleReporter": "spec",
        "useInlineDiffs": false,
        "code": true
      },
      "version": "5.0.0"
    },
    "marge": {
      "options": {
        "id": "default",
        "reportDir": "cypress/reports/mocha",
        "quite": true,
        "overwrite": true,
        "html": true,
        "json": true
      },
      "version": "4.1.0"
    }
  }
}